실습 과제 1. 타이타닉 데이터셋
…
3-1. Preparation

3-1-1. merge data for preprocessing

# merge train and test data for preprocessing
train = copy(tt.train) # PassengerId 1 ~ 891
test = copy(tt.test) # PassengerId 892 ~ 1309

test$Survived = NA # add new column to merge

tt.merged = rbind(train,test)
tt.merged

## # A tibble: 1,309 × 12
##    PassengerId Survived Pclass Name   Sex     Age SibSp Parch Ticket  Fare Cabin
##          <dbl>    <dbl>  <dbl> <chr>  <chr> <dbl> <dbl> <dbl> <chr>  <dbl> <chr>
##  1           1        0      3 Braun… male     22     1     0 A/5 2…  7.25 <NA> 
##  2           2        1      1 Cumin… fema…    38     1     0 PC 17… 71.3  C85  
##  3           3        1      3 Heikk… fema…    26     0     0 STON/…  7.92 <NA> 
##  4           4        1      1 Futre… fema…    35     1     0 113803 53.1  C123 
##  5           5        0      3 Allen… male     35     0     0 373450  8.05 <NA> 
##  6           6        0      3 Moran… male     NA     0     0 330877  8.46 <NA> 
##  7           7        0      1 McCar… male     54     0     0 17463  51.9  E46  
##  8           8        0      3 Palss… male      2     3     1 349909 21.1  <NA> 
##  9           9        1      3 Johns… fema…    27     0     2 347742 11.1  <NA> 
## 10          10        1      2 Nasse… fema…    14     1     0 237736 30.1  <NA> 
## # … with 1,299 more rows, and 1 more variable: Embarked <chr>
…
